lab/lab1/lab1_hw/lab1.vcd
$date
	Mon Jun  3 15:52:47 2019
$end
$version
	Icarus Verilog
$end
$timescale
	1s
$end
$scope module lab1_main $end
$var wire 3 ! s_gl [2:0] $end
$var wire 3 " s [2:0] $end
$var wire 1 # c3_gl $end
$var wire 1 $ c3 $end
$var reg 3 % a [2:0] $end
$var reg 3 & b [2:0] $end
$var reg 1 ' c0 $end
$var integer 32 ( delay [31:0] $end
$var integer 32 ) i [31:0] $end
$var integer 32 * j [31:0] $end
$var integer 32 + max_delay [31:0] $end
$var integer 32 , time0 [31:0] $end
$var integer 32 - time1 [31:0] $end
$var integer 32 . time_max [31:0] $end
$scope module adder $end
$var wire 3 / A [2:0] $end
$var wire 3 0 B [2:0] $end
$var wire 1 ' C0 $end
$var wire 3 1 S [2:0] $end
$var wire 1 $ C3 $end
$upscope $end
$scope module adder_gl $end
$var wire 3 2 A [2:0] $end
$var wire 3 3 B [2:0] $end
$var wire 1 ' C0 $end
$var wire 3 4 S [2:0] $end
$var wire 3 5 P [2:0] $end
$var wire 3 6 M [2:0] $end
$var wire 3 7 G [2:0] $end
$var wire 1 # C3 $end
$var wire 4 8 C [3:0] $end
$scope module and0 $end
$var wire 1 9 A $end
$var wire 1 : B $end
$var wire 1 ; Y $end
$upscope $end
$scope module and1 $end
$var wire 1 < A $end
$var wire 1 = B $end
$var wire 1 > Y $end
$upscope $end
$scope module and2 $end
$var wire 1 ? A $end
$var wire 1 @ B $end
$var wire 1 A Y $end
$upscope $end
$scope module and4 $end
$var wire 1 B A $end
$var wire 1 C B $end
$var wire 1 D Y $end
$upscope $end
$scope module and5 $end
$var wire 1 E A $end
$var wire 1 F B $end
$var wire 1 G Y $end
$upscope $end
$scope module and6 $end
$var wire 1 H A $end
$var wire 1 I B $end
$var wire 1 J Y $end
$upscope $end
$scope module fa0 $end
$var wire 1 K A $end
$var wire 1 L B $end
$var wire 1 M CI $end
$var wire 1 N S $end
$var wire 1 O s1 $end
$var wire 1 P s0 $end
$var wire 1 Q c1 $end
$var wire 1 R c0 $end
$var wire 1 S C $end
$scope module ha0 $end
$var wire 1 K A $end
$var wire 1 L B $end
$var wire 1 P S $end
$var wire 1 R C $end
$scope module g0 $end
$var wire 1 K A $end
$var wire 1 L B $end
$var wire 1 P Y $end
$upscope $end
$scope module g1 $end
$var wire 1 K A $end
$var wire 1 L B $end
$var wire 1 R Y $end
$upscope $end
$upscope $end
$scope module ha1 $end
$var wire 1 P A $end
$var wire 1 M B $end
$var wire 1 O S $end
$var wire 1 Q C $end
$scope module g0 $end
$var wire 1 P A $end
$var wire 1 M B $end
$var wire 1 O Y $end
$upscope $end
$scope module g1 $end
$var wire 1 P A $end
$var wire 1 M B $end
$var wire 1 Q Y $end
$upscope $end
$upscope $end
$scope module or0 $end
$var wire 1 R A $end
$var wire 1 Q B $end
$var wire 1 S Y $end
$upscope $end
$upscope $end
$scope module fa1 $end
$var wire 1 T A $end
$var wire 1 U B $end
$var wire 1 V CI $end
$var wire 1 W S $end
$var wire 1 X s1 $end
$var wire 1 Y s0 $end
$var wire 1 Z c1 $end
$var wire 1 [ c0 $end
$var wire 1 \ C $end
$scope module ha0 $end
$var wire 1 T A $end
$var wire 1 U B $end
$var wire 1 Y S $end
$var wire 1 [ C $end
$scope module g0 $end
$var wire 1 T A $end
$var wire 1 U B $end
$var wire 1 Y Y $end
$upscope $end
$scope module g1 $end
$var wire 1 T A $end
$var wire 1 U B $end
$var wire 1 [ Y $end
$upscope $end
$upscope $end
$scope module ha1 $end
$var wire 1 Y A $end
$var wire 1 V B $end
$var wire 1 X S $end
$var wire 1 Z C $end
$scope module g0 $end
$var wire 1 Y A $end
$var wire 1 V B $end
$var wire 1 X Y $end
$upscope $end
$scope module g1 $end
$var wire 1 Y A $end
$var wire 1 V B $end
$var wire 1 Z Y $end
$upscope $end
$upscope $end
$scope module or0 $end
$var wire 1 [ A $end
$var wire 1 Z B $end
$var wire 1 \ Y $end
$upscope $end
$upscope $end
$scope module fa2 $end
$var wire 1 ] A $end
$var wire 1 ^ B $end
$var wire 1 _ CI $end
$var wire 1 ` S $end
$var wire 1 a s1 $end
$var wire 1 b s0 $end
$var wire 1 c c1 $end
$var wire 1 d c0 $end
$var wire 1 e C $end
$scope module ha0 $end
$var wire 1 ] A $end
$var wire 1 ^ B $end
$var wire 1 b S $end
$var wire 1 d C $end
$scope module g0 $end
$var wire 1 ] A $end
$var wire 1 ^ B $end
$var wire 1 b Y $end
$upscope $end
$scope module g1 $end
$var wire 1 ] A $end
$var wire 1 ^ B $end
$var wire 1 d Y $end
$upscope $end
$upscope $end
$scope module ha1 $end
$var wire 1 b A $end
$var wire 1 _ B $end
$var wire 1 a S $end
$var wire 1 c C $end
$scope module g0 $end
$var wire 1 b A $end
$var wire 1 _ B $end
$var wire 1 a Y $end
$upscope $end
$scope module g1 $end
$var wire 1 b A $end
$var wire 1 _ B $end
$var wire 1 c Y $end
$upscope $end
$upscope $end
$scope module or0 $end
$var wire 1 d A $end
$var wire 1 c B $end
$var wire 1 e Y $end
$upscope $end
$upscope $end
$scope module or0 $end
$var wire 1 f A $end
$var wire 1 g B $end
$var wire 1 h Y $end
$upscope $end
$scope module or1 $end
$var wire 1 i A $end
$var wire 1 j B $end
$var wire 1 k Y $end
$upscope $end
$scope module or2 $end
$var wire 1 l A $end
$var wire 1 m B $end
$var wire 1 n Y $end
$upscope $end
$scope module or4 $end
$var wire 1 o A $end
$var wire 1 p B $end
$var wire 1 q Y $end
$upscope $end
$scope module or5 $end
$var wire 1 r A $end
$var wire 1 s B $end
$var wire 1 t Y $end
$upscope $end
$scope module or6 $end
$var wire 1 u A $end
$var wire 1 v B $end
$var wire 1 w Y $end
$upscope $end
$upscope $end
$upscope $end
$enddefinitions $end
#0
$dumpvars
xw
xv
xu
xt
xs
xr
xq
xp
xo
xn
0m
0l
xk
0j
0i
xh
0g
0f
xe
xd
xc
xb
xa
x`
x_
0^
0]
x\
x[
xZ
xY
xX
xW
xV
0U
0T
xS
xR
xQ
xP
xO
xN
0M
0L
0K
xJ
xI
xH
xG
xF
xE
xD
0C
xB
xA
0@
0?
x>
0=
0<
x;
0:
09
bx0 8
bx 7
bx 6
bx 5
bx 4
b0 3
b0 2
b0 1
b0 0
b0 /
bx .
bx -
bx ,
b0 +
b0 *
b0 )
bx (
0'
b0 &
b0 %
0$
x#
b0 "
bx !
$end
#3
0o
0B
0r
0E
0u
0H
0p
0R
0;
0h
0[
0>
0k
0d
b0 7
0A
b0 5
0n
bx0 6
0D
0Q
#5
0P
0Y
0b
#6
0s
0v
0F
0V
0G
b0 6
0J
bx00 8
0q
0S
#8
0Z
0c
#9
b0 .
b1001 +
b1001 (
0I
0_
0#
0t
b0 8
0w
#10
b1010 +
b1010 (
bx0 !
bx0 4
0N
0O
#11
b1011 +
b1011 (
0\
0e
bx00 !
bx00 4
0W
0X
#14
b1110 +
b1110 (
b0 !
b0 4
0`
0a
#200
b1 *
#300
b1 "
b1 1
1C
1M
b1 8
1'
#305
b101 (
b1 !
b1 4
1N
1O
#400
b0 "
b0 1
0C
0M
b0 8
0'
b10 *
#405
b0 !
b0 4
0N
0O
#500
b1 "
b1 1
1L
1:
1g
b1 &
b1 0
b1 3
#503
1B
b1 5
1h
#505
1P
#510
b1010 (
b1 !
b1 4
1N
1O
#600
b0 "
b0 1
0L
0:
0g
b0 &
b0 0
b0 3
b11 *
#603
0B
b0 5
0h
#605
0P
#610
b0 !
b0 4
0N
0O
#700
1L
1:
1g
b10 "
b10 1
1C
1M
b1 &
b1 0
b1 3
b1 8
1'
#703
1B
b1 5
1h
#705
b101 (
1P
b1 !
b1 4
1N
1O
#706
1p
b1 6
1D
#708
1Q
#709
1F
1V
b11 8
1q
#710
b1010 (
b0 !
b0 4
0N
0O
#711
1S
#714
b1110 (
b10 !
b10 4
1W
1X
#800
0L
0:
0g
b0 "
b0 1
0C
0M
b0 &
b0 0
b0 3
b10 8
0'
b100 *
#803
0B
0p
b0 5
0h
b0 6
0D
0Q
#805
b101 (
0P
b11 !
b11 4
1N
1O
#806
0F
0V
b0 8
0q
0S
#810
b1010 (
b10 !
b10 4
0N
0O
#811
b1011 (
b0 !
b0 4
0W
0X
#900
b10 "
b10 1
1U
1=
1j
b10 &
b10 0
b10 3
#903
1E
b10 5
1k
#905
1Y
#910
b1010 (
b10 !
b10 4
1W
1X
#1000
b0 "
b0 1
0U
0=
0j
b0 &
b0 0
b0 3
b101 *
#1003
0E
b0 5
0k
#1005
0Y
#1010
b0 !
b0 4
0W
0X
#1100
1U
1=
1j
b11 "
b11 1
1C
1M
b10 &
b10 0
b10 3
b1 8
1'
#1103
1E
b10 5
1k
#1105
b101 (
1Y
b1 !
b1 4
1N
1O
#1110
b1010 (
b11 !
b11 4
1W
1X
#1200
0U
0=
0j
b0 "
b0 1
0C
0M
b0 &
b0 0
b0 3
b0 8
0'
b110 *
#1203
0E
b0 5
0k
#1205
b101 (
0Y
b10 !
b10 4
0N
0O
#1210
b1010 (
b0 !
b0 4
0W
0X
#1300
b11 "
b11 1
1L
1:
1g
1U
1=
1j
b11 &
b11 0
b11 3
#1303
1B
1E
1h
b11 5
1k
#1305
1P
1Y
#1310
1N
1O
b11 !
b11 4
1W
1X
#1400
b0 "
b0 1
0L
0:
0g
0U
0=
0j
b0 &
b0 0
b0 3
b111 *
#1403
0B
0E
0h
b0 5
0k
#1405
0P
0Y
#1410
0N
0O
b0 !
b0 4
0W
0X
#1500
1L
1:
1g
1U
1=
1j
b100 "
b100 1
1C
1M
b11 &
b11 0
b11 3
b1 8
1'
#1503
1B
1E
1h
b11 5
1k
#1505
b101 (
1P
1Y
b1 !
b1 4
1N
1O
#1506
1p
b1 6
1D
#1508
1Q
#1509
1F
1V
b11 8
1q
#1510
b1010 (
b0 !
b0 4
0N
0O
#1511
1S
#1512
1s
b11 6
1G
1Z
#1515
1I
1_
b111 8
1t
1\
#1520
b1111 .
b10100 +
b10100 (
b100 !
b100 4
1`
1a
#1600
0L
0:
0g
0U
0=
0j
b0 "
b0 1
0C
0M
b0 &
b0 0
b0 3
b110 8
0'
b1000 *
#1603
0B
0E
0p
0h
b0 5
0k
b10 6
0D
0Q
#1605
b101 (
0P
0Y
b101 !
b101 4
1N
1O
#1606
0s
0F
0V
b0 6
0G
b100 8
0q
0S
#1608
0Z
#1609
0I
0_
b0 8
0t
#1610
b1010 (
b100 !
b100 4
0N
0O
#1611
0\
#1614
b1110 (
b0 !
b0 4
0`
0a
#1700
b100 "
b100 1
1^
1@
1m
b100 &
b100 0
b100 3
#1703
1H
b100 5
1n
#1705
1b
#1710
b1010 (
b100 !
b100 4
1`
1a
#1800
b0 "
b0 1
0^
0@
0m
b0 &
b0 0
b0 3
b1001 *
#1803
0H
b0 5
0n
#1805
0b
#1810
b0 !
b0 4
0`
0a
#1900
1^
1@
1m
b101 "
b101 1
1C
1M
b100 &
b100 0
b100 3
b1 8
1'
#1903
1H
b100 5
1n
#1905
b101 (
1b
b1 !
b1 4
1N
1O
#1910
b1010 (
b101 !
b101 4
1`
1a
#2000
0^
0@
0m
b0 "
b0 1
0C
0M
b0 &
b0 0
b0 3
b0 8
0'
b1010 *
#2003
0H
b0 5
0n
#2005
b101 (
0b
b100 !
b100 4
0N
0O
#2010
b1010 (
b0 !
b0 4
0`
0a
#2100
b101 "
b101 1
1L
1:
1g
1^
1@
1m
b101 &
b101 0
b101 3
#2103
1B
1H
1h
b101 5
1n
#2105
1P
1b
#2110
1N
1O
b101 !
b101 4
1`
1a
#2200
b0 "
b0 1
0L
0:
0g
0^
0@
0m
b0 &
b0 0
b0 3
b1011 *
#2203
0B
0H
0h
b0 5
0n
#2205
0P
0b
#2210
0N
0O
b0 !
b0 4
0`
0a
#2300
1L
1:
1g
1^
1@
1m
b110 "
b110 1
1C
1M
b101 &
b101 0
b101 3
b1 8
1'
#2303
1B
1H
1h
b101 5
1n
#2305
b101 (
1P
1b
b1 !
b1 4
1N
1O
#2306
1p
b1 6
1D
#2308
1Q
#2309
1F
1V
b11 8
1q
#2310
b1010 (
0N
0O
b100 !
b100 4
1`
1a
#2311
1S
#2314
b1110 (
b110 !
b110 4
1W
1X
#2400
0L
0:
0g
0^
0@
0m
b0 "
b0 1
0C
0M
b0 &
b0 0
b0 3
b10 8
0'
b1100 *
#2403
0B
0H
0p
0h
b0 5
0n
b0 6
0D
0Q
#2405
b101 (
0P
0b
b111 !
b111 4
1N
1O
#2406
0F
0V
b0 8
0q
0S
#2410
b1010 (
0N
0O
b10 !
b10 4
0`
0a
#2411
b1011 (
b0 !
b0 4
0W
0X
#2500
b110 "
b110 1
1U
1=
1j
1^
1@
1m
b110 &
b110 0
b110 3
#2503
1E
1H
1k
b110 5
1n
#2505
1Y
1b
#2510
b1010 (
1W
1X
b110 !
b110 4
1`
1a
#2600
b0 "
b0 1
0U
0=
0j
0^
0@
0m
b0 &
b0 0
b0 3
b1101 *
#2603
0E
0H
0k
b0 5
0n
#2605
0Y
0b
#2610
0W
0X
b0 !
b0 4
0`
0a
#2700
1U
1=
1j
1^
1@
1m
b111 "
b111 1
1C
1M
b110 &
b110 0
b110 3
b1 8
1'
#2703
1E
1H
1k
b110 5
1n
#2705
b101 (
1Y
1b
b1 !
b1 4
1N
1O
#2710
b1010 (
1W
1X
b111 !
b111 4
1`
1a
#2800
0U
0=
0j
0^
0@
0m
b0 "
b0 1
0C
0M
b0 &
b0 0
b0 3
b0 8
0'
b1110 *
#2803
0E
0H
0k
b0 5
0n
#2805
b101 (
0Y
0b
b110 !
b110 4
0N
0O
#2810
b1010 (
0W
0X
b0 !
b0 4
0`
0a
#2900
b111 "
b111 1
1L
1:
1g
1U
1=
1j
1^
1@
1m
b111 &
b111 0
b111 3
#2903
1B
1E
1H
1h
1k
b111 5
1n
#2905
1P
1Y
1b
#2910
1N
1O
1W
1X
b111 !
b111 4
1`
1a
#3000
b0 "
b0 1
0L
0:
0g
0U
0=
0j
0^
0@
0m
b0 &
b0 0
b0 3
b1111 *
#3003
0B
0E
0H
0h
0k
b0 5
0n
#3005
0P
0Y
0b
#3010
0N
0O
0W
0X
b0 !
b0 4
0`
0a
#3100
1$
1L
1:
1g
1U
1=
1j
1^
1@
1m
1C
1M
b111 &
b111 0
b111 3
b1 8
1'
#3103
1B
1E
1H
1h
1k
b111 5
1n
#3105
b101 (
1P
1Y
1b
b1 !
b1 4
1N
1O
#3106
1p
b1 6
1D
#3108
1Q
#3109
1F
1V
b11 8
1q
#3110
b1010 (
0N
0O
b100 !
b100 4
1`
1a
#3111
1S
#3112
1s
b11 6
1G
1Z
#3115
1I
1_
b111 8
1t
1\
#3118
1v
b111 6
1J
1c
#3120
b10100 (
b0 !
b0 4
0`
0a
#3121
b11111 .
b10101 +
b10101 (
1#
b1111 8
1w
1e
#3200
0L
0:
0g
0U
0=
0j
0^
0@
0m
0$
0C
0M
b0 &
b0 0
b0 3
b1110 8
0'
b10000 *
#3203
0B
0E
0H
0p
0h
0k
b0 5
0n
b110 6
0D
0Q
#3205
b101 (
0P
0Y
0b
b1 !
b1 4
1N
1O
#3206
0s
0v
0F
0V
0G
b0 6
0J
b1100 8
0q
0S
#3208
0Z
0c
#3209
b1001 (
0I
0_
0#
0t
b0 8
0w
#3210
b1010 (
b0 !
b0 4
0N
0O
#3211
0\
0e
#3300
b1 "
b1 1
1K
19
1f
b1 %
b1 /
b1 2
#3303
1B
b1 5
1h
#3305
1P
#3310
b1 !
b1 4
1N
1O
#3400
b0 "
b0 1
0K
09
0f
b0 %
b0 /
b0 2
b10001 *
#3403
0B
b0 5
0h
#3405
0P
#3410
b0 !
b0 4
0N
0O
#3500
1K
19
1f
b10 "
b10 1
1C
1M
b1 %
b1 /
b1 2
b1 8
1'
#3503
1B
b1 5
1h
#3505
b101 (
1P
b1 !
b1 4
1N
1O
#3506
1p
b1 6
1D
#3508
1Q
#3509
1F
1V
b11 8
1q
#3510
b1010 (
b0 !
b0 4
0N
0O
#3511
1S
#3514
b1110 (
b10 !
b10 4
1W
1X
#3600
0K
09
0f
b0 "
b0 1
0C
0M
b0 %
b0 /
b0 2
b10 8
0'
b10010 *
#3603
0B
0p
b0 5
0h
b0 6
0D
0Q
#3605
b101 (
0P
b11 !
b11 4
1N
1O
#3606
0F
0V
b0 8
0q
0S
#3610
b1010 (
b10 !
b10 4
0N
0O
#3611
b1011 (
b0 !
b0 4
0W
0X
#3700
1K
19
1f
b10 "
b10 1
1L
1:
1g
b1 %
b1 /
b1 2
b1 &
b1 0
b1 3
#3703
1o
1B
1R
b1 7
1;
b1 5
1h
#3706
1F
1V
b10 8
1q
1S
#3711
b10 !
b10 4
1W
1X
#3800
0K
09
0f
b0 "
b0 1
0L
0:
0g
b0 %
b0 /
b0 2
b0 &
b0 0
b0 3
b10011 *
#3803
0o
0B
0R
b0 7
0;
b0 5
0h
#3806
0F
0V
b0 8
0q
0S
#3811
b0 !
b0 4
0W
0X
#3900
1K
19
1f
1L
1:
1g
b11 "
b11 1
1C
1M
b1 %
b1 /
b1 2
b1 &
b1 0
b1 3
b1 8
1'
#3903
1o
1B
1R
b1 7
1;
b1 5
1h
#3905
b101 (
b1 !
b1 4
1N
1O
#3906
1F
1V
1p
b11 8
1q
b1 6
1D
1S
#3911
b1011 (
b11 !
b11 4
1W
1X
#4000
0K
09
0f
0L
0:
0g
b0 "
b0 1
0C
0M
b0 %
b0 /
b0 2
b0 &
b0 0
b0 3
b10 8
0'
b10100 *
#4003
0o
0B
0p
0R
b0 7
0;
b0 5
0h
b0 6
0D
#4005
b101 (
b10 !
b10 4
0N
0O
#4006
0F
0V
b0 8
0q
0S
#4011
b1011 (
b0 !
b0 4
0W
0X
#4100
1K
19
1f
b11 "
b11 1
1U
1=
1j
b1 %
b1 /
b1 2
b10 &
b10 0
b10 3
#4103
1B
1E
1h
b11 5
1k
#4105
1P
1Y
#4110
b1010 (
1N
1O
b11 !
b11 4
1W
1X
#4200
0K
09
0f
b0 "
b0 1
0U
0=
0j
b0 %
b0 /
b0 2
b0 &
b0 0
b0 3
b10101 *
#4203
0B
0E
0h
b0 5
0k
#4205
0P
0Y
#4210
0N
0O
b0 !
b0 4
0W
0X
#4300
1K
19
1f
1U
1=
1j
b100 "
b100 1
1C
1M
b1 %
b1 /
b1 2
b10 &
b10 0
b10 3
b1 8
1'
#4303
1B
1E
1h
b11 5
1k
#4305
b101 (
1P
1Y
b1 !
b1 4
1N
1O
#4306
1p
b1 6
1D
#4308
1Q
#4309
1F
1V
b11 8
1q
#4310
b1010 (
b0 !
b0 4
0N
0O
#4311
1S
#4312
1s
b11 6
1G
1Z
#4315
1I
1_
b111 8
1t
1\
#4320
b10100 (
b100 !
b100 4
1`
1a
#4400
0K
09
0f
0U
0=
0j
b0 "
b0 1
0C
0M
b0 %
b0 /
b0 2
b0 &
b0 0
b0 3
b110 8
0'
b10110 *
#4403
0B
0E
0p
0h
b0 5
0k
b10 6
0D
0Q
#4405
b101 (
0P
0Y
b101 !
b101 4
1N
1O
#4406
0s
0F
0V
b0 6
0G
b100 8
0q
0S
#4408
0Z
#4409
0I
0_
b0 8
0t
#4410
b1010 (
b100 !
b100 4
0N
0O
#4411
0\
#4414
b1110 (
b0 !
b0 4
0`
0a
#4500
1K
19
1f
b100 "
b100 1
1L
1:
1g
1U
1=
1j
b1 %
b1 /
b1 2
b11 &
b11 0
b11 3
#4503
1o
1B
1E
1R
b1 7
1;
1h
b11 5
1k
#4505
1Y
#4506
1F
1V
b10 8
1q
1S
#4509
1s
b10 6
1G
1Z
#4512
1I
1_
b110 8
1t
1\
#4517
b10001 (
b100 !
b100 4
1`
1a
#4600
0K
09
0f
b0 "
b0 1
0L
0:
0g
0U
0=
0j
b0 %
b0 /
b0 2
b0 &
b0 0
b0 3
b10111 *
#4603
0o
0B
0E
0R
b0 7
0;
0h
b0 5
0k
#4605
0Y
#4606
0F
0V
0s
b100 8
0q
b0 6
0G
0S
#4608
0Z
#4609
0I
0_
b0 8
0t
#4611
0\
#4614
b1110 (
b0 !
b0 4
0`
0a
#4700
1K
19
1f
1L
1:
1g
1U
1=
1j
b101 "
b101 1
1C
1M
b1 %
b1 /
b1 2
b11 &
b11 0
b11 3
b1 8
1'
#4703
1o
1B
1E
1R
b1 7
1;
1h
b11 5
1k
#4705
b101 (
1Y
b1 !
b1 4
1N
1O
#4706
1F
1V
1p
b11 8
1q
b1 6
1D
1S
#4709
1s
b11 6
1G
1Z
#4712
1I
1_
b111 8
1t
1\
#4717
b10001 (
b101 !
b101 4
1`
1a
#4800
0K
09
0f
0L
0:
0g
0U
0=
0j
b0 "
b0 1
0C
0M
b0 %
b0 /
b0 2
b0 &
b0 0
b0 3
b110 8
0'
b11000 *
#4803
0o
0B
0E
0p
0R
b0 7
0;
0h
b0 5
0k
b10 6
0D
#4805
b101 (
0Y
b100 !
b100 4
0N
0O
#4806
0s
0F
0V
b0 6
0G
b100 8
0q
0S
#4808
0Z
#4809
0I
0_
b0 8
0t
#4811
0\
#4814
b1110 (
b0 !
b0 4
0`
0a
#4900
1K
19
1f
b101 "
b101 1
1^
1@
1m
b1 %
b1 /
b1 2
b100 &
b100 0
b100 3
#4903
1B
1H
1h
b101 5
1n
#4905
1P
1b
#4910
b1010 (
1N
1O
b101 !
b101 4
1`
1a
#5000
0K
09
0f
b0 "
b0 1
0^
0@
0m
b0 %
b0 /
b0 2
b0 &
b0 0
b0 3
b11001 *
#5003
0B
0H
0h
b0 5
0n
#5005
0P
0b
#5010
0N
0O
b0 !
b0 4
0`
0a
#5100
1K
19
1f
1^
1@
1m
b110 "
b110 1
1C
1M
b1 %
b1 /
b1 2
b100 &
b100 0
b100 3
b1 8
1'
#5103
1B
1H
1h
b101 5
1n
#5105
b101 (
1P
1b
b1 !
b1 4
1N
1O
#5106
1p
b1 6
1D
#5108
1Q
#5109
1F
1V
b11 8
1q
#5110
b1010 (
0N
0O
b100 !
b100 4
1`
1a
#5111
1S
#5114
b1110 (
b110 !
b110 4
1W
1X
#5200
0K
09
0f
0^
0@
0m
b0 "
b0 1
0C
0M
b0 %
b0 /
b0 2
b0 &
b0 0
b0 3
b10 8
0'
b11010 *
#5203
0B
0H
0p
0h
b0 5
0n
b0 6
0D
0Q
#5205
b101 (
0P
0b
b111 !
b111 4
1N
1O
#5206
0F
0V
b0 8
0q
0S
#5210
b1010 (
0N
0O
b10 !
b10 4
0`
0a
#5211
b1011 (
b0 !
b0 4
0W
0X
#5300
1K
19
1f
b110 "
b110 1
1L
1:
1g
1^
1@
1m
b1 %
b1 /
b1 2
b101 &
b101 0
b101 3
#5303
1o
1B
1H
1R
b1 7
1;
1h
b101 5
1n
#5305
1b
#5306
1F
1V
b10 8
1q
1S
#5310
b1010 (
b100 !
b100 4
1`
1a
#5311
b1011 (
b110 !
b110 4
1W
1X
#5400
0K
09
0f
b0 "
b0 1
0L
0:
0g
0^
0@
0m
b0 %
b0 /
b0 2
b0 &
b0 0
b0 3
b11011 *
#5403
0o
0B
0H
0R
b0 7
0;
0h
b0 5
0n
#5405
0b
#5406
0F
0V
b0 8
0q
0S
#5410
b1010 (
b10 !
b10 4
0`
0a
#5411
b1011 (
b0 !
b0 4
0W
0X
#5500
1K
19
1f
1L
1:
1g
1^
1@
1m
b111 "
b111 1
1C
1M
b1 %
b1 /
b1 2
b101 &
b101 0
b101 3
b1 8
1'
#5503
1o
1B
1H
1R
b1 7
1;
1h
b101 5
1n
#5505
b101 (
1b
b1 !
b1 4
1N
1O
#5506
1F
1V
1p
b11 8
1q
b1 6
1D
1S
#5510
b1010 (
b101 !
b101 4
1`
1a
#5511
b1011 (
b111 !
b111 4
1W
1X
#5600
0K
09
0f
0L
0:
0g
0^
0@
0m
b0 "
b0 1
0C
0M
b0 %
b0 /
b0 2
b0 &
b0 0
b0 3
b10 8
0'
b11100 *
#5603
0o
0B
0H
0p
0R
b0 7
0;
0h
b0 5
0n
b0 6
0D
#5605
b101 (
0b
b110 !
b110 4
0N
0O
#5606
0F
0V
b0 8
0q
0S
#5610
b1010 (
b10 !
b10 4
0`
0a
#5611
b1011 (
b0 !
b0 4
0W
0X
#5700
1K
19
1f
b111 "
b111 1
1U
1=
1j
1^
1@
1m
b1 %
b1 /
b1 2
b110 &
b110 0
b110 3
#5703
1B
1E
1H
1h
1k
b111 5
1n
#5705
1P
1Y
1b
#5710
b1010 (
1N
1O
1W
1X
b111 !
b111 4
1`
1a
#5800
0K
09
0f
b0 "
b0 1
0U
0=
0j
0^
0@
0m
b0 %
b0 /
b0 2
b0 &
b0 0
b0 3
b11101 *
#5803
0B
0E
0H
0h
0k
b0 5
0n
#5805
0P
0Y
0b
#5810
0N
0O
0W
0X
b0 !
b0 4
0`
0a
#5900
1$
1K
19
1f
1U
1=
1j
1^
1@
1m
1C
1M
b1 %
b1 /
b1 2
b110 &
b110 0
b110 3
b1 8
1'
#5903
1B
1E
1H
1h
1k
b111 5
1n
#5905
b101 (
1P
1Y
1b
b1 !
b1 4
1N
1O
#5906
1p
b1 6
1D
#5908
1Q
#5909
1F
1V
b11 8
1q
#5910
b1010 (
0N
0O
b100 !
b100 4
1`
1a
#5911
1S
#5912
1s
b11 6
1G
1Z
#5915
1I
1_
b111 8
1t
1\
#5918
1v
b111 6
1J
1c
#5920
b10100 (
b0 !
b0 4
0`
0a
#5921
b10101 (
1#
b1111 8
1w
1e
#6000
0K
09
0f
0U
0=
0j
0^
0@
0m
0$
0C
0M
b0 %
b0 /
b0 2
b0 &
b0 0
b0 3
b1110 8
0'
b11110 *
#6003
0B
0E
0H
0p
0h
0k
b0 5
0n
b110 6
0D
0Q
#6005
b101 (
0P
0Y
0b
b1 !
b1 4
1N
1O
#6006
0s
0v
0F
0V
0G
b0 6
0J
b1100 8
0q
0S
#6008
0Z
0c
#6009
b1001 (
0I
0_
0#
0t
b0 8
0w
#6010
b1010 (
b0 !
b0 4
0N
0O
#6011
0\
0e
#6100
1$
1K
19
1f
1L
1:
1g
1U
1=
1j
1^
1@
1m
b1 %
b1 /
b1 2
b111 &
b111 0
b111 3
#6103
1o
1B
1E
1H
1R
b1 7
1;
1h
1k
b111 5
1n
#6105
1Y
1b
#6106
1F
1V
b10 8
1q
1S
#6109
1s
b10 6
1G
1Z
#6110
b100 !
b100 4
1`
1a
#6112
1I
1_
b110 8
1t
1\
#6115
1v
b110 6
1J
1c
#6117
b10001 (
b0 !
b0 4
0`
0a
#6118
b10010 (
1#
b1110 8
1w
1e
#6200
0K
09
0f
0$
0L
0:
0g
0U
0=
0j
0^
0@
0m
b0 %
b0 /
b0 2
b0 &
b0 0
b0 3
b11111 *
#6203
0o
0B
0E
0H
0R
b0 7
0;
0h
0k
b0 5
0n
#6205
0Y
0b
#6206
0F
0V
0s
0v
b1100 8
0q
0G
b0 6
0J
0S
#6208
0Z
0c
#6209
b1001 (
0I
0_
0#
0t
b0 8
0w
#6211
0\
0e
#6300
1K
19
1f
1$
1L
1:
1g
1U
1=
1j
1^
1@
1m
b1 "
b1 1
1C
1M
b1 %
b1 /
b1 2
b111 &
b111 0
b111 3
b1 8
1'
#6303
1o
1B
1E
1H
1R
b1 7
1;
1h
1k
b111 5
1n
#6305
b101 (
1Y
1b
b1 !
b1 4
1N
1O
#6306
1F
1V
1p
b11 8
1q
b1 6
1D
1S
#6309
1s
b11 6
1G
1Z
#6310
b1010 (
b101 !
b101 4
1`
1a
#6312
1I
1_
b111 8
1t
1\
#6315
1v
b111 6
1J
1c
#6317
b10001 (
b1 !
b1 4
0`
0a
#6318
b10010 (
1#
b1111 8
1w
1e
#6400
0K
09
0f
0$
0L
0:
0g
0U
0=
0j
0^
0@
0m
b0 "
b0 1
0C
0M
b0 %
b0 /
b0 2
b0 &
b0 0
b0 3
b1110 8
0'
b100000 *
#6403
0o
0B
0E
0H
0p
0R
b0 7
0;
0h
0k
b0 5
0n
b110 6
0D
#6405
b101 (
0Y
0b
b0 !
b0 4
0N
0O
#6406
0s
0v
0F
0V
0G
b0 6
0J
b1100 8
0q
0S
#6408
0Z
0c
#6409
b1001 (
0I
0_
0#
0t
b0 8
0w
#6411
0\
0e
#6500
b10 "
b10 1
1T
1<
1i
b10 %
b10 /
b10 2
#6503
1E
b10 5
1k
#6505
1Y
#6510
b1010 (
b10 !
b10 4
1W
1X
#6600
b0 "
b0 1
0T
0<
0i
b0 %
b0 /
b0 2
b100001 *
#6603
0E
b0 5
0k
#6605
0Y
#6610
b0 !
b0 4
0W
0X
#6700
1T
1<
1i
b11 "
b11 1
1C
1M
b10 %
b10 /
b10 2
b1 8
1'
#6703
1E
b10 5
1k
#6705
b101 (
1Y
b1 !
b1 4
1N
1O
#6710
b1010 (
b11 !
b11 4
1W
1X
#6800
0T
0<
0i
b0 "
b0 1
0C
0M
b0 %
b0 /
b0 2
b0 8
0'
b100010 *
#6803
0E
b0 5
0k
#6805
b101 (
0Y
b10 !
b10 4
0N
0O
#6810
b1010 (
b0 !
b0 4
0W
0X
#6900
1T
1<
1i
b11 "
b11 1
1L
1:
1g
b10 %
b10 /
b10 2
b1 &
b1 0
b1 3
#6903
1E
1B
1k
b11 5
1h
#6905
1Y
1P
#6910
1W
1X
b11 !
b11 4
1N
1O
#7000
0T
0<
0i
b0 "
b0 1
0L
0:
0g
b0 %
b0 /
b0 2
b0 &
b0 0
b0 3
b100011 *
#7003
0E
0B
0k
b0 5
0h
#7005
0Y
0P
#7010
0W
0X
b0 !
b0 4
0N
0O
#7100
1T
1<
1i
1L
1:
1g
b100 "
b100 1
1C
1M
b10 %
b10 /
b10 2
b1 &
b1 0
b1 3
b1 8
1'
#7103
1E
1B
1k
b11 5
1h
